{ "compressionlevel":-1,
 "height":31,
 "infinite":false,
 "layers":[
        {
         "data":[8, 2684354571, 2684354571, 2684354571, 2684354571, 2684354571, 2684354571, 2684354571, 2684354571, 2684354571, 2684354571, 2684354571, 2684354571, 2684354571, 2684354571, 2684354571, 2684354571, 2684354571, 2684354571, 2684354571, 2684354571, 2684354571, 2684354571, 2684354571, 2684354571, 2684354571, 2684354568, 3221225483, 13, 13, 13, 13, 13, 13, 13, 13, 13, 13, 13, 13, 13, 13, 13, 13, 13, 13, 13, 13, 13, 13, 13, 13, 13, 11, 3221225483, 13, 8, 1610612747, 1610612747, 1610612747, 1610612747, 2684354570, 13, 1610612746, 1610612747, 2684354568, 13, 10, 13, 8, 1610612747, 2684354570, 13, 1610612746, 1610612747, 1610612747, 1610612747, 1610612747, 2684354568, 13, 11, 3221225483, 13, 11, 13, 13, 13, 13, 13, 13, 13, 13, 3221225483, 13, 11, 13, 11, 13, 13, 13, 13, 13, 13, 13, 13, 3221225483, 13, 11, 3221225483, 13, 11, 13, 1610612746, 1610612747, 1610612747, 1610612747, 12, 2684354570, 13, 3221225483, 13, 3221225482, 13, 11, 13, 1610612746, 12, 1610612747, 1610612747, 1610612747, 2684354570, 13, 3221225483, 13, 11, 3221225483, 13, 11, 13, 13, 13, 13, 13, 3221225483, 13, 13, 3221225483, 13, 13, 13, 11, 13, 13, 11, 13, 13, 13, 13, 13, 3221225483, 13, 11, 3221225483, 13, 11, 13, 8, 1610612747, 2684354568, 13, 3221225483, 13, 8, 3221225484, 2684354570, 13, 1610612746, 3221225484, 2684354568, 13, 11, 13, 8, 1610612747, 2684354568, 13, 3221225483, 13, 11, 3221225483, 13, 11, 13, 3221225483, 14, 11, 13, 3221225483, 13, 11, 13, 13, 13, 13, 13, 11, 13, 11, 13, 11, 14, 11, 13, 3221225483, 13, 11, 3221225483, 13, 3221225482, 13, 1610612744, 2684354571, 3221225480, 13, 3221225483, 13, 3221225482, 13, 14, 13, 14, 13, 3221225482, 13, 11, 13, 1610612744, 1610612747, 3221225480, 13, 3221225482, 13, 11, 3221225483, 13, 13, 13, 13, 13, 13, 13, 3221225483, 13, 13, 13, 13, 13, 13, 13, 13, 13, 11, 13, 13, 13, 13, 13, 13, 13, 11, 1610612748, 2684354570, 13, 1610612746, 1610612747, 1610612747, 2684354568, 13, 1610612744, 2684354571, 2684354571, 1610612747, 2684354570, 13, 1610612746, 1610612747, 1610612747, 1610612747, 3221225480, 13, 8, 1610612747, 1610612747, 2684354570, 13, 1610612746, 2684354572, 3221225483, 13, 13, 13, 13, 13, 11, 13, 13, 13, 13, 13, 13, 13, 13, 13, 13, 13, 13, 13, 3221225483, 13, 13, 13, 13, 13, 11, 3221225483, 13, 10, 13, 10, 13, 1610612748, 1610612747, 2684354571, 1610612747, 1610612747, 1610612747, 2684354570, 13, 1610612746, 1610612747, 1610612747, 1610612747, 1610612747, 1610612747, 2684354572, 13, 10, 13, 10, 13, 11, 3221225483, 13, 11, 13, 3221225483, 13, 11, 13, 13, 13, 13, 13, 13, 13, 13, 13, 13, 13, 13, 13, 3221225483, 13, 11, 13, 11, 13, 11, 3221225483, 13, 11, 13, 11, 13, 11, 13, 14, 13, 8, 1610612747, 2684354570, 13, 1610612746, 2684354571, 2684354568, 13, 14, 13, 3221225483, 13, 11, 13, 11, 13, 11, 3221225483, 13, 3221225482, 13, 3221225483, 13, 3221225482, 13, 13, 13, 3221225483, 13, 13, 13, 13, 13, 3221225483, 13, 13, 13, 3221225482, 13, 3221225483, 13, 3221225482, 13, 11, 3221225483, 13, 13, 13, 11, 13, 13, 13, 10, 13, 1610612744, 1610612747, 1610612747, 1610612747, 1610612747, 2684354571, 3221225480, 13, 10, 13, 13, 13, 11, 13, 13, 13, 11, 1610612748, 2684354570, 13, 1610612746, 9, 1610612747, 2684354570, 13, 11, 13, 13, 13, 13, 13, 13, 13, 13, 13, 3221225483, 13, 1610612746, 1610612747, 9, 2684354570, 13, 1610612746, 2684354572, 3221225483, 13, 13, 13, 11, 13, 13, 13, 11, 13, 10, 13, 8, 1610612747, 2684354568, 13, 10, 13, 3221225483, 13, 13, 13, 11, 13, 13, 13, 11, 3221225483, 13, 10, 13, 11, 13, 10, 13, 11, 13, 11, 13, 3221225482, 13, 3221225482, 13, 11, 13, 3221225483, 13, 10, 13, 11, 13, 10, 13, 11, 3221225483, 13, 11, 13, 11, 13, 11, 13, 3221225482, 13, 11, 13, 13, 13, 13, 13, 11, 13, 3221225482, 13, 11, 13, 11, 13, 11, 13, 11, 11, 13, 11, 13, 3221225482, 13, 11, 13, 13, 13, 1610612744, 2684354570, 13, 10, 13, 1610612746, 3221225480, 13, 13, 13, 11, 13, 3221225482, 13, 11, 13, 11, 3221225483, 13, 11, 13, 13, 13, 1610612744, 1610612747, 2684354570, 13, 13, 13, 13, 11, 13, 13, 13, 13, 1610612746, 1610612747, 3221225480, 13, 13, 13, 11, 13, 11, 3221225483, 13, 11, 13, 14, 13, 13, 13, 13, 13, 8, 1610612747, 1610612747, 3221225484, 1610612747, 1610612747, 2684354568, 13, 13, 13, 13, 13, 14, 13, 11, 13, 11, 3221225483, 13, 3221225482, 13, 13, 13, 1610612746, 1610612747, 1610612747, 1610612747, 3221225484, 1610612747, 1610612747, 1610612747, 1610612747, 1610612747, 3221225484, 1610612747, 1610612747, 1610612747, 2684354570, 13, 13, 13, 3221225482, 13, 11, 3221225483, 13, 13, 13, 10, 13, 13, 13, 13, 13, 13, 13, 13, 13, 13, 13, 13, 13, 13, 13, 13, 13, 10, 13, 13, 13, 11, 1610612748, 1610612747, 2684354570, 13, 11, 13, 1610612746, 1610612747, 1610612747, 12, 2684354570, 13, 1610612746, 12, 2684354570, 13, 1610612746, 12, 1610612747, 1610612747, 2684354570, 13, 11, 13, 1610612746, 1610612747, 2684354572, 11, 13, 13, 13, 11, 13, 13, 13, 13, 3221225483, 13, 13, 13, 11, 13, 13, 13, 11, 13, 13, 13, 13, 11, 13, 13, 13, 11, 3221225483, 13, 1610612746, 1610612747, 3221225484, 1610612747, 1610612747, 2684354570, 13, 3221225482, 13, 10, 13, 3221225482, 13, 10, 13, 3221225482, 13, 1610612746, 2684354571, 2684354571, 3221225484, 2684354571, 2684354570, 13, 11, 3221225483, 13, 13, 13, 13, 13, 13, 13, 13, 13, 13, 11, 13, 13, 13, 11, 13, 13, 13, 13, 13, 13, 13, 13, 13, 13, 11, 1610612744, 2684354571, 2684354571, 2684354571, 2684354571, 2684354571, 2684354571, 2684354571, 2684354571, 2684354571, 2684354571, 3221225484, 2684354571, 1610612747, 2684354571, 3221225484, 2684354571, 2684354571, 2684354571, 2684354571, 2684354571, 2684354571, 2684354571, 2684354571, 2684354571, 2684354571, 3221225480],
         "height":31,
         "id":1,
         "name":"Tile Layer 1",
         "opacity":1,
         "type":"tilelayer",
         "visible":true,
         "width":27,
         "x":0,
         "y":0
        }, 
        {
         "data":[0, 0, 0, 0, 0, 0, 0, 0, 0, 0, 0, 0, 0, 0, 0, 0, 0, 0, 0, 0, 0, 0, 0, 0, 0, 0, 0, 0, 16, 0, 0, 0, 0, 0, 0, 0, 0, 0, 0, 0, 0, 0, 0, 0, 0, 0, 0, 0, 0, 0, 0, 0, 16, 0, 0, 0, 0, 0, 0, 0, 0, 0, 0, 0, 0, 0, 0, 0, 0, 0, 0, 0, 0, 0, 0, 0, 0, 0, 0, 0, 0, 0, 0, 0, 0, 0, 0, 0, 0, 0, 0, 0, 0, 0, 0, 0, 0, 0, 0, 0, 0, 0, 0, 0, 0, 0, 0, 0, 0, 0, 0, 0, 0, 0, 0, 0, 0, 0, 0, 0, 0, 0, 0, 0, 0, 0, 0, 0, 0, 0, 0, 0, 0, 0, 0, 0, 0, 0, 0, 0, 0, 0, 0, 0, 16, 0, 0, 0, 0, 0, 0, 0, 0, 0, 0, 0, 0, 0, 0, 0, 0, 0, 0, 0, 0, 0, 0, 0, 0, 0, 0, 0, 0, 0, 0, 0, 0, 0, 0, 0, 0, 0, 0, 0, 0, 0, 0, 0, 0, 0, 0, 0, 0, 0, 0, 0, 0, 0, 0, 0, 0, 0, 0, 0, 0, 0, 0, 0, 0, 0, 0, 0, 0, 0, 0, 0, 0, 0, 0, 0, 0, 0, 0, 0, 0, 0, 0, 0, 0, 0, 0, 0, 0, 0, 0, 0, 0, 0, 0, 0, 0, 0, 0, 0, 0, 0, 0, 0, 0, 0, 0, 0, 0, 0, 0, 0, 0, 0, 0, 0, 0, 0, 0, 0, 0, 0, 0, 0, 0, 0, 0, 0, 0, 0, 0, 0, 0, 0, 0, 0, 0, 0, 0, 0, 0, 0, 0, 0, 0, 0, 0, 0, 0, 0, 0, 0, 0, 0, 0, 0, 0, 0, 0, 0, 0, 0, 0, 0, 0, 0, 0, 0, 0, 0, 0, 0, 0, 0, 16, 0, 0, 0, 0, 0, 0, 0, 0, 0, 0, 0, 0, 0, 0, 0, 0, 0, 0, 0, 0, 0, 0, 0, 0, 0, 0, 0, 0, 0, 0, 0, 0, 0, 0, 0, 0, 0, 0, 0, 0, 0, 16, 0, 0, 0, 0, 0, 0, 0, 0, 0, 0, 0, 0, 0, 0, 0, 0, 0, 0, 0, 0, 0, 0, 0, 0, 0, 0, 0, 0, 0, 0, 0, 0, 0, 0, 0, 0, 0, 0, 0, 0, 0, 0, 0, 0, 0, 0, 0, 0, 0, 0, 0, 0, 0, 0, 0, 0, 0, 0, 0, 0, 0, 0, 0, 0, 0, 0, 0, 0, 0, 0, 0, 0, 16, 0, 0, 0, 0, 0, 0, 0, 0, 0, 0, 0, 0, 0, 0, 0, 0, 0, 0, 0, 0, 0, 0, 0, 0, 0, 0, 0, 0, 0, 0, 0, 0, 0, 0, 0, 0, 0, 0, 0, 0, 0, 0, 0, 0, 0, 0, 0, 0, 0, 0, 0, 0, 0, 0, 0, 0, 0, 0, 0, 0, 0, 0, 0, 0, 0, 0, 0, 0, 0, 0, 0, 0, 0, 16, 0, 0, 0, 0, 0, 0, 0, 0, 0, 0, 0, 0, 0, 0, 0, 0, 0, 0, 0, 0, 0, 0, 0, 0, 0, 0, 0, 0, 0, 0, 0, 0, 0, 0, 0, 0, 0, 0, 0, 0, 0, 0, 0, 0, 0, 0, 0, 0, 0, 0, 0, 0, 0, 0, 0, 0, 0, 0, 0, 0, 0, 0, 0, 0, 0, 0, 0, 0, 0, 0, 0, 0, 0, 0, 0, 0, 0, 0, 0, 0, 0, 0, 0, 0, 0, 0, 0, 0, 0, 0, 0, 0, 0, 0, 0, 0, 0, 0, 0, 0, 0, 0, 0, 0, 0, 0, 0, 0, 0, 0, 0, 0, 0, 0, 0, 0, 0, 0, 0, 0, 0, 0, 0, 0, 0, 0, 0, 0, 0, 0, 0, 0, 0, 0, 0, 0, 0, 0, 0, 0, 0, 0, 0, 0, 16, 0, 0, 0, 0, 0, 0, 0, 0, 0, 0, 0, 0, 0, 0, 0, 0, 0, 0, 0, 0, 0, 0, 0, 0, 0, 0, 0, 0, 0, 0, 0, 0, 0, 0, 0, 0, 0, 0, 0, 0, 0, 0, 0, 16, 0, 0, 0, 0, 0, 0, 0, 0, 0, 0, 0, 0, 0, 0, 0, 0, 0, 0, 0, 0, 0, 0, 0, 0, 0, 0, 0, 0, 0, 0, 0, 0, 0, 0, 0, 0, 0, 0, 0, 0, 0, 0, 0, 0, 0, 0, 0, 0, 0, 0, 0, 0, 0, 0, 0, 0, 0, 0, 0, 0, 0, 0, 0, 0, 0, 0, 0, 0, 0, 0, 0, 0, 0, 0, 0, 0, 0, 0, 0, 0, 0, 0, 0, 0, 0, 0, 0, 0, 0, 0, 0, 0, 0, 0, 0, 0, 0, 0, 0, 0, 0, 0, 0, 0, 0, 0, 0, 0, 0, 0, 0, 0, 0, 0, 0, 0, 0, 0, 0, 0, 0, 0, 0, 0, 0, 0, 0, 0, 0, 0, 0, 0, 0, 0, 0, 0, 0, 0, 0, 0],
         "height":31,
         "id":7,
         "name":"powerups",
         "opacity":1,
         "type":"tilelayer",
         "visible":true,
         "width":27,
         "x":0,
         "y":0
        }, 
        {
         "draworder":"topdown",
         "id":6,
         "name":"PowerUps",
         "objects":[
                {
                 "ellipse":true,
                 "height":0,
                 "id":312,
                 "name":"",
                 "rotation":0,
                 "type":"",
                 "visible":true,
                 "width":0,
                 "x":48,
                 "y":48
                }, 
                {
                 "ellipse":true,
                 "height":0,
                 "id":313,
                 "name":"",
                 "rotation":0,
                 "type":"",
                 "visible":true,
                 "width":0,
                 "x":304,
                 "y":176
                }, 
                {
                 "ellipse":true,
                 "height":0,
                 "id":314,
                 "name":"",
                 "rotation":0,
                 "type":"",
                 "visible":true,
                 "width":0,
                 "x":304,
                 "y":432
                }, 
                {
                 "ellipse":true,
                 "height":0,
                 "id":315,
                 "name":"",
                 "rotation":0,
                 "type":"",
                 "visible":true,
                 "width":0,
                 "x":48,
                 "y":528
                }, 
                {
                 "ellipse":true,
                 "height":0,
                 "id":316,
                 "name":"",
                 "rotation":0,
                 "type":"",
                 "visible":true,
                 "width":0,
                 "x":144,
                 "y":784
                }, 
                {
                 "ellipse":true,
                 "height":0,
                 "id":317,
                 "name":"",
                 "rotation":0,
                 "type":"",
                 "visible":true,
                 "width":0,
                 "x":688,
                 "y":816
                }, 
                {
                 "ellipse":true,
                 "height":0,
                 "id":318,
                 "name":"",
                 "rotation":0,
                 "type":"",
                 "visible":true,
                 "width":0,
                 "x":688,
                 "y":592
                }, 
                {
                 "ellipse":true,
                 "height":0,
                 "id":319,
                 "name":"",
                 "rotation":0,
                 "type":"",
                 "visible":true,
                 "width":0,
                 "x":688,
                 "y":368
                }, 
                {
                 "ellipse":true,
                 "height":0,
                 "id":320,
                 "name":"",
                 "rotation":0,
                 "type":"",
                 "visible":true,
                 "width":0,
                 "x":816,
                 "y":48
                }],
         "opacity":1,
         "type":"objectgroup",
         "visible":true,
         "x":0,
         "y":0
        }],
 "nextlayerid":8,
 "nextobjectid":321,
 "orientation":"orthogonal",
 "renderorder":"right-down",
 "tiledversion":"1.3.4",
 "tileheight":32,
 "tilesets":[
        {
         "firstgid":1,
         "source":"maptiles\/Tiles.tsx"
        }],
 "tilewidth":32,
 "type":"map",
 "version":1.2,
 "width":27
}